Name	Cond	Data
DNA29_Cond1	Cond1	DNA
DNA30_Cond1	Cond1	DNA
DNA31_Cond1	Cond1	DNA
DNA32_Cond1	Cond1	DNA
DNA33_Cond1	Cond1	DNA
DNA34_Cond1	Cond1	DNA
DNA35_Cond2	Cond2	DNA
DNA36_Cond2	Cond2	DNA
DNA37_Cond2	Cond2	DNA
DNA38_Cond2	Cond2	DNA
DNA39_Cond2	Cond2	DNA
DNA40_Cond2	Cond2	DNA
RNA29_Cond1	Cond1	RNA
RNA30_Cond1	Cond1	RNA
RNA31_Cond1	Cond1	RNA
RNA32_Cond1	Cond1	RNA
RNA33_Cond1	Cond1	RNA
RNA34_Cond1	Cond1	RNA
RNA35_Cond2	Cond2	RNA
RNA36_Cond2	Cond2	RNA
RNA37_Cond2	Cond2	RNA
RNA38_Cond2	Cond2	RNA
RNA39_Cond2	Cond2	RNA
RNA40_Cond2	Cond2	RNA
